<?xml version="1.0" encoding="UTF-8" standalone="no"?>
<!-- Created with Inkscape (http://www.inkscape.org/) -->

<svg
   inkscape:export-ydpi="96"
   inkscape:export-xdpi="96"
   inkscape:export-filename="Template.png"
   width="192"
   height="152"
   id="svg11300"
   sodipodi:version="0.32"
   inkscape:version="1.2.2 (b0a8486541, 2022-12-01)"
   sodipodi:docname="codes.loers.Punchclock.Source.svg"
   inkscape:output_extension="org.inkscape.output.svg.inkscape"
   version="1.0"
   style="display:inline;enable-background:new"
   viewBox="0 0 192 152"
   xml:space="preserve"
   xmlns:inkscape="http://www.inkscape.org/namespaces/inkscape"
   xmlns:sodipodi="http://sodipodi.sourceforge.net/DTD/sodipodi-0.dtd"
   xmlns:xlink="http://www.w3.org/1999/xlink"
   xmlns="http://www.w3.org/2000/svg"
   xmlns:svg="http://www.w3.org/2000/svg"
   xmlns:rdf="http://www.w3.org/1999/02/22-rdf-syntax-ns#"
   xmlns:cc="http://creativecommons.org/ns#"
   xmlns:dc="http://purl.org/dc/elements/1.1/"><title
     id="title4162">Adwaita Icon Template</title><defs
     id="defs3"><linearGradient
       inkscape:collect="always"
       id="linearGradient3096"><stop
         style="stop-color:#e01b24;stop-opacity:1;"
         offset="0"
         id="stop3092" /><stop
         style="stop-color:#f66151;stop-opacity:1;"
         offset="1"
         id="stop3094" /></linearGradient><linearGradient
       id="linearGradient2681"
       inkscape:collect="always"><stop
         id="stop2669"
         offset="0"
         style="stop-color:#9a9996;stop-opacity:1;" /><stop
         style="stop-color:#deddda;stop-opacity:1;"
         offset="0.03571427"
         id="stop2671" /><stop
         style="stop-color:#c0bfbc;stop-opacity:1"
         offset="0.07142856"
         id="stop2673" /><stop
         style="stop-color:#c0bfbc;stop-opacity:1"
         offset="0.9285714"
         id="stop2675" /><stop
         style="stop-color:#deddda;stop-opacity:1;"
         offset="0.96428567"
         id="stop2677" /><stop
         id="stop2679"
         offset="1"
         style="stop-color:#9a9996;stop-opacity:1;" /></linearGradient><linearGradient
       inkscape:collect="always"
       id="linearGradient2614"><stop
         style="stop-color:#57e389;stop-opacity:1;"
         offset="0"
         id="stop2610" /><stop
         style="stop-color:#26a269;stop-opacity:1;"
         offset="1"
         id="stop2612" /></linearGradient><linearGradient
       inkscape:collect="always"
       xlink:href="#linearGradient2681"
       id="linearGradient1250"
       gradientUnits="userSpaceOnUse"
       gradientTransform="matrix(0.25,0,0,0.25,-14.14897,400.34849)"
       x1="88.595886"
       y1="-449.39401"
       x2="536.59589"
       y2="-449.39401" /><linearGradient
       inkscape:collect="always"
       xlink:href="#linearGradient2614"
       id="linearGradient2616"
       x1="64"
       y1="232"
       x2="64"
       y2="268"
       gradientUnits="userSpaceOnUse"
       gradientTransform="translate(0,-24)" /><linearGradient
       inkscape:collect="always"
       xlink:href="#linearGradient3096"
       id="linearGradient489"
       gradientUnits="userSpaceOnUse"
       x1="64"
       y1="254"
       x2="64"
       y2="274" /></defs><sodipodi:namedview
     stroke="#ef2929"
     fill="#f57900"
     id="base"
     pagecolor="#ffffff"
     bordercolor="#666666"
     borderopacity="0.25490196"
     inkscape:pageopacity="0.0"
     inkscape:pageshadow="2"
     inkscape:zoom="1"
     inkscape:cx="96.5"
     inkscape:cy="76"
     inkscape:current-layer="layer9"
     showgrid="false"
     inkscape:grid-bbox="true"
     inkscape:document-units="px"
     inkscape:showpageshadow="false"
     inkscape:window-width="1280"
     inkscape:window-height="731"
     inkscape:window-x="0"
     inkscape:window-y="0"
     width="400px"
     height="300px"
     inkscape:snap-nodes="true"
     inkscape:snap-bbox="true"
     objecttolerance="7"
     gridtolerance="12"
     guidetolerance="13"
     inkscape:window-maximized="1"
     inkscape:pagecheckerboard="false"
     showguides="false"
     inkscape:guide-bbox="true"
     inkscape:locked="false"
     inkscape:measure-start="0,0"
     inkscape:measure-end="0,0"
     inkscape:object-nodes="true"
     inkscape:bbox-nodes="true"
     inkscape:snap-global="true"
     inkscape:object-paths="true"
     inkscape:snap-intersection-paths="true"
     inkscape:snap-bbox-edge-midpoints="true"
     inkscape:snap-bbox-midpoints="true"
     showborder="true"
     inkscape:snap-center="true"
     inkscape:snap-object-midpoints="true"
     inkscape:snap-midpoints="true"
     inkscape:snap-smooth-nodes="true"
     inkscape:snap-text-baseline="true"
     borderlayer="true"
     inkscape:deskcolor="#d1d1d1"><inkscape:grid
       type="xygrid"
       id="grid5883"
       spacingx="2"
       spacingy="2"
       enabled="true"
       visible="true"
       empspacing="4"
       originx="8"
       originy="8" /><sodipodi:guide
       position="72,16"
       orientation="0,1"
       id="guide1073"
       inkscape:locked="false"
       inkscape:label=""
       inkscape:color="rgb(0,0,255)" /><sodipodi:guide
       position="20,72"
       orientation="1,0"
       id="guide1075"
       inkscape:locked="false"
       inkscape:label=""
       inkscape:color="rgb(0,0,255)" /><sodipodi:guide
       position="72,112"
       orientation="0,1"
       id="guide1099"
       inkscape:locked="false"
       inkscape:label=""
       inkscape:color="rgb(0,0,255)" /><sodipodi:guide
       position="72,136"
       orientation="0,1"
       id="guide993"
       inkscape:locked="false"
       inkscape:label=""
       inkscape:color="rgb(0,0,255)" /><sodipodi:guide
       position="112,72"
       orientation="1,0"
       id="guide995"
       inkscape:locked="false"
       inkscape:label=""
       inkscape:color="rgb(0,0,255)" /><sodipodi:guide
       position="8.0000001,72"
       orientation="1,0"
       id="guide867"
       inkscape:locked="false"
       inkscape:label=""
       inkscape:color="rgb(0,0,255)" /><sodipodi:guide
       position="128,72"
       orientation="1,0"
       id="guide869"
       inkscape:locked="false"
       inkscape:label=""
       inkscape:color="rgb(0,0,255)" /><sodipodi:guide
       position="72,124"
       orientation="0,1"
       id="guide871"
       inkscape:locked="false"
       inkscape:label=""
       inkscape:color="rgb(0,0,255)" /><inkscape:grid
       type="xygrid"
       id="grid873"
       spacingx="1"
       spacingy="1"
       empspacing="8"
       color="#000000"
       opacity="0.49019608"
       empcolor="#000000"
       empopacity="0.08627451"
       dotted="true"
       originx="8"
       originy="8" /><sodipodi:guide
       position="32,72"
       orientation="1,0"
       id="guide877"
       inkscape:locked="false"
       inkscape:label=""
       inkscape:color="rgb(0,0,255)" /><sodipodi:guide
       position="124,72"
       orientation="1,0"
       id="guide879"
       inkscape:locked="false"
       inkscape:label=""
       inkscape:color="rgb(0,0,255)" /><sodipodi:guide
       position="72,128"
       orientation="0,1"
       id="guide881"
       inkscape:locked="false"
       inkscape:label=""
       inkscape:color="rgb(0,0,255)" /><sodipodi:guide
       position="72,20"
       orientation="0,1"
       id="guide883"
       inkscape:locked="false"
       inkscape:label=""
       inkscape:color="rgb(0,0,255)" /><sodipodi:guide
       position="16,72"
       orientation="1,0"
       id="guide885"
       inkscape:locked="false"
       inkscape:label=""
       inkscape:color="rgb(0,0,255)" /><sodipodi:guide
       position="136,72"
       orientation="1,0"
       id="guide887"
       inkscape:locked="false"
       inkscape:label=""
       inkscape:color="rgb(0,0,255)" /><sodipodi:guide
       position="72,8"
       orientation="0,1"
       id="guide897"
       inkscape:locked="false"
       inkscape:label=""
       inkscape:color="rgb(0,0,255)" /><sodipodi:guide
       position="72,32"
       orientation="0,1"
       id="guide899"
       inkscape:locked="false"
       inkscape:label=""
       inkscape:color="rgb(0,0,255)" /><sodipodi:guide
       position="264,264"
       orientation="-0.70710678,0.70710678"
       id="guide950"
       inkscape:locked="false"
       inkscape:label=""
       inkscape:color="rgb(0,0,255)" /><sodipodi:guide
       position="72,72"
       orientation="0.70710678,0.70710678"
       id="guide952"
       inkscape:locked="false"
       inkscape:label=""
       inkscape:color="rgb(0,0,255)" /></sodipodi:namedview><metadata
     id="metadata4"><rdf:RDF><cc:Work
         rdf:about=""><dc:format>image/svg+xml</dc:format><dc:type
           rdf:resource="http://purl.org/dc/dcmitype/StillImage" /><dc:creator><cc:Agent><dc:title>GNOME Design Team</dc:title></cc:Agent></dc:creator><dc:source /><cc:license
           rdf:resource="http://creativecommons.org/licenses/by-sa/4.0/" /><dc:title>Adwaita Icon Template</dc:title><dc:subject><rdf:Bag /></dc:subject><dc:date /><dc:rights><cc:Agent><dc:title /></cc:Agent></dc:rights><dc:publisher><cc:Agent><dc:title /></cc:Agent></dc:publisher><dc:identifier /><dc:relation /><dc:language /><dc:coverage /><dc:description /><dc:contributor><cc:Agent><dc:title /></cc:Agent></dc:contributor></cc:Work><cc:License
         rdf:about="http://creativecommons.org/licenses/by-sa/4.0/"><cc:permits
           rdf:resource="http://creativecommons.org/ns#Reproduction" /><cc:permits
           rdf:resource="http://creativecommons.org/ns#Distribution" /><cc:requires
           rdf:resource="http://creativecommons.org/ns#Notice" /><cc:requires
           rdf:resource="http://creativecommons.org/ns#Attribution" /><cc:permits
           rdf:resource="http://creativecommons.org/ns#DerivativeWorks" /><cc:requires
           rdf:resource="http://creativecommons.org/ns#ShareAlike" /></cc:License></rdf:RDF></metadata><g
     id="layer1"
     inkscape:label="App Icon"
     inkscape:groupmode="layer"
     style="display:inline"
     transform="translate(8,-156)"><g
       inkscape:groupmode="layer"
       id="layer4"
       inkscape:label="template"
       style="display:inline"
       sodipodi:insensitive="true"><rect
         inkscape:label="0"
         y="172"
         x="9.2651362e-08"
         height="128"
         width="128"
         id="hicolor"
         style="display:inline;overflow:visible;visibility:visible;fill:#f0f0f0;fill-opacity:0;fill-rule:nonzero;stroke:none;stroke-width:0.5;marker:none;enable-background:accumulate" /><rect
         style="display:inline;overflow:visible;visibility:visible;fill:#f0f0f0;fill-opacity:0;fill-rule:nonzero;stroke:none;stroke-width:0.5;marker:none;enable-background:accumulate"
         id="symbolic"
         width="16"
         height="16"
         x="160"
         y="172"
         inkscape:label="0" /></g><g
       inkscape:groupmode="layer"
       id="layer2"
       inkscape:label="baseplate"
       style="display:inline"
       sodipodi:insensitive="true"><g
         style="display:inline;fill:#000000;enable-background:new"
         transform="matrix(7.9911709,0,0,8.0036407,-167.7909,-4846.0776)"
         id="g12027"
         inkscape:export-xdpi="12"
         inkscape:export-ydpi="12" /><rect
         style="display:inline;overflow:visible;visibility:visible;fill:#f0f0f0;fill-opacity:1;fill-rule:nonzero;stroke:none;stroke-width:0.5;marker:none;enable-background:accumulate"
         id="128"
         width="128"
         height="128"
         x="9.2651362e-08"
         y="172"
         inkscape:label="0" /><g
         id="g883"
         style="fill:none;fill-opacity:0.25098;stroke:#a579b3;stroke-opacity:1"
         transform="translate(-24,24)" /><g
         id="g900"
         style="fill:none;fill-opacity:0.25098;stroke:#a579b3;stroke-opacity:1"
         transform="translate(-24,24)" /><rect
         inkscape:label=""
         y="172"
         x="160"
         height="16"
         width="16"
         id="16"
         style="display:inline;overflow:visible;visibility:visible;fill:#f0f0f0;fill-opacity:1;fill-rule:nonzero;stroke:none;stroke-width:0.5;marker:none;enable-background:accumulate" /><text
         xml:space="preserve"
         style="font-style:normal;font-variant:normal;font-weight:bold;font-stretch:normal;font-size:4px;line-height:125%;font-family:Cantarell;-inkscape-font-specification:'Cantarell, Bold';text-align:start;writing-mode:lr-tb;text-anchor:start;display:inline;fill:#000000;fill-opacity:1;stroke:none;stroke-width:0.332649;enable-background:new"
         x="0"
         y="167"
         id="text863"
         inkscape:label="icon-name"><tspan
           style="font-size:4px;stroke-width:0.332649"
           sodipodi:role="line"
           id="tspan861"
           x="0"
           y="167">Hicolor</tspan></text><text
         inkscape:label="icon-name"
         id="text867"
         y="167"
         x="160"
         style="font-style:normal;font-variant:normal;font-weight:bold;font-stretch:normal;font-size:4px;line-height:125%;font-family:Cantarell;-inkscape-font-specification:'Cantarell, Bold';text-align:start;writing-mode:lr-tb;text-anchor:start;display:inline;fill:#000000;fill-opacity:1;stroke:none;stroke-width:0.332649;enable-background:new"
         xml:space="preserve"><tspan
           y="167"
           x="160"
           id="tspan865"
           sodipodi:role="line"
           style="font-size:4px;stroke-width:0.332649">Symbolic</tspan></text></g><g
       inkscape:groupmode="layer"
       id="layer9"
       inkscape:label="icons"
       style="display:inline"><rect
         ry="8"
         rx="8"
         y="212"
         x="7.9999933"
         height="76"
         width="112.00001"
         id="rect1244"
         style="display:inline;vector-effect:none;fill:url(#linearGradient1250);fill-opacity:1;stroke:none;stroke-width:0.25;stroke-linecap:butt;stroke-linejoin:miter;stroke-miterlimit:4;stroke-dasharray:none;stroke-dashoffset:0;stroke-opacity:1;marker:none;marker-start:none;marker-mid:none;marker-end:none;paint-order:normal;enable-background:new" /><rect
         style="display:inline;vector-effect:none;fill:#f6f5f4;fill-opacity:1;stroke:none;stroke-width:0.25;stroke-linecap:butt;stroke-linejoin:miter;stroke-miterlimit:4;stroke-dasharray:none;stroke-dashoffset:0;stroke-opacity:1;marker:none;marker-start:none;marker-mid:none;marker-end:none;paint-order:normal;enable-background:new"
         id="rect1246"
         width="112.00001"
         height="80"
         x="7.9999933"
         y="200"
         rx="8"
         ry="8" /><path
         id="rect1162"
         clip-path="none"
         style="display:inline;vector-effect:none;fill:#deddda;fill-opacity:1;stroke:none;stroke-width:0.25;stroke-linecap:butt;stroke-linejoin:miter;stroke-miterlimit:4;stroke-dasharray:none;stroke-dashoffset:0;stroke-opacity:1;marker:none;marker-start:none;marker-mid:none;marker-end:none;paint-order:normal;enable-background:new"
         d="M 140 252 L 28 252 L 28 272 C 28 276.432 31.568004 280 36 280 L 132 280 C 136.432 280 140 276.432 140 272 L 140 252 z "
         transform="translate(-20)" /><rect
         style="fill:url(#linearGradient2616);fill-opacity:1;stroke-width:2"
         id="rect2608"
         width="96"
         height="36"
         x="16"
         y="208"
         rx="4"
         ry="4" /><g
         id="g2317"
         style="opacity:0.2;fill:#241f31"
         transform="translate(0,-22)"><path
           style="fill:#241f31;stroke-width:1"
           d="m 33.999999,239 1,-1 h 6.000003 l 1,1 -1,1 h -6.000003 z"
           id="path2257" /><path
           style="fill:#241f31;stroke-width:1"
           d="M 43,240.00001 44.000002,241 v 6 l -0.999997,1 -1.000003,-1 10e-7,-6 z"
           id="path2259" /><path
           style="fill:#241f31;stroke-width:1"
           d="M 32.999996,240.00001 33.999997,241 v 6 l -0.999998,1 -1.000002,-1 1e-6,-6 z"
           id="path2261" /><path
           style="fill:#241f31;stroke-width:1"
           d="M 43,250.00001 44.000002,251 v 6 l -0.999997,1 -1.000003,-1 10e-7,-6 z"
           id="path2263" /><path
           style="fill:#241f31;stroke-width:1"
           d="M 32.999996,250.00001 33.999997,251 v 6 l -0.999998,1 -1.000002,-1 1e-6,-6 z"
           id="path2265" /><path
           style="fill:#241f31;stroke-width:1"
           d="m 33.999999,259 1,-1 h 6.000003 l 1,1 -1,1 h -6.000003 z"
           id="path2267" /><path
           style="fill:#241f31;stroke-width:1"
           d="m 49.999999,239 1,-1 h 6.000003 l 1,1 -1,1 h -6.000003 z"
           id="path2269" /><path
           style="fill:#241f31;stroke-width:1"
           d="M 59,240.00001 60.000002,241 v 6 l -0.999997,1 -1.000003,-1 10e-7,-6 z"
           id="path2271" /><path
           style="fill:#241f31;stroke-width:1"
           d="M 48.999996,240.00001 49.999997,241 v 6 l -0.999998,1 -1.000002,-1 10e-7,-6 z"
           id="path2273" /><path
           style="fill:#241f31;stroke-width:1"
           d="M 59,250.00001 60.000002,251 v 6 l -0.999997,1 -1.000003,-1 10e-7,-6 z"
           id="path2275" /><path
           style="fill:#241f31;stroke-width:1"
           d="M 48.999996,250.00001 49.999997,251 v 6 l -0.999998,1 -1.000002,-1 10e-7,-6 z"
           id="path2277" /><path
           style="fill:#241f31;stroke-width:1"
           d="m 49.999999,259 1,-1 h 6.000003 l 1,1 -1,1 h -6.000003 z"
           id="path2279" /><path
           style="fill:#241f31;stroke-width:1"
           d="m 69.999999,239 1,-1 h 6.000003 l 1,1 -1,1 h -6.000003 z"
           id="path2281" /><path
           style="fill:#241f31;stroke-width:1"
           d="M 79,240.00001 80.000002,241 v 6 l -0.999997,1 -1.000003,-1 1e-6,-6 z"
           id="path2283" /><path
           style="fill:#241f31;stroke-width:1"
           d="M 79,250.00001 80.000002,251 v 6 l -0.999997,1 -1.000003,-1 1e-6,-6 z"
           id="path2285" /><path
           style="fill:#241f31;stroke-width:1"
           d="m 69.999999,259 1,-1 h 6.000003 l 1,1 -1,1 h -6.000003 z"
           id="path2287" /><path
           style="fill:#241f31;stroke-width:1"
           d="m 85.999999,239 1,-1 h 6.000003 l 1,1 -1,1 h -6.000003 z"
           id="path2289" /><path
           style="fill:#241f31;stroke-width:1"
           d="M 95,240.00001 96.000002,241 v 6 l -0.999997,1 -1.000003,-1 1e-6,-6 z"
           id="path2291" /><path
           style="fill:#241f31;stroke-width:1"
           d="M 95,250.00001 96.000002,251 v 6 l -0.999997,1 -1.000003,-1 1e-6,-6 z"
           id="path2293" /><circle
           style="opacity:1;fill:#241f31;stroke-width:2"
           id="circle2295"
           cx="64"
           cy="244"
           r="2" /><circle
           style="opacity:1;fill:#241f31;stroke-width:2"
           id="circle2297"
           cx="64"
           cy="254"
           r="2" /><path
           style="fill:#241f31;stroke-width:1"
           d="m 49.999999,249 1,-1 h 6.000003 l 1,1 -1,1 h -6.000003 z"
           id="path2299" /><path
           style="fill:#241f31;stroke-width:1"
           d="m 69.999999,249 1,-1 h 6.000003 l 1,1 -1,1 h -6.000003 z"
           id="path2301" /><path
           style="fill:#241f31;stroke-width:1"
           d="M 85,240.00001 86.000002,241 v 6 l -0.999997,1 -1.000003,-1 1e-6,-6 z"
           id="path2303" /><path
           style="fill:#241f31;stroke-width:1"
           d="M 85,250.00001 86.000002,251 v 6 l -0.999997,1 -1.000003,-1 1e-6,-6 z"
           id="path2305" /><path
           style="fill:#241f31;stroke-width:1"
           d="m 85.999999,249 1,-1 h 6.000003 l 1,1 -1,1 h -6.000003 z"
           id="path2307" /><path
           style="fill:#241f31;stroke-width:1"
           d="m 85.999999,259 1,-1 h 6.000003 l 1,1 -1,1 h -6.000003 z"
           id="path2309" /><path
           style="fill:#241f31;stroke-width:1"
           d="M 69,240.00001 70.000002,241 v 6 l -0.999997,1 -1.000003,-1 1e-6,-6 z"
           id="path2311" /><path
           style="fill:#241f31;stroke-width:1"
           d="M 69,250.00001 70.000002,251 v 6 l -0.999997,1 -1.000003,-1 1e-6,-6 z"
           id="path2313" /><path
           style="fill:#241f31;stroke-width:1"
           d="m 33.999999,249 1,-1 h 6.000003 l 1,1 -1,1 h -6.000003 z"
           id="path2315" /></g><path
         id="rect8840"
         style="opacity:1;fill:#241f31;stroke-width:2"
         d="M 163 176 C 161.338 176 160 177.338 160 179 L 160 185 C 160 186.662 161.338 188 163 188 L 173 188 C 174.662 188 176 186.662 176 185 L 176 179 C 176 177.338 174.662 176 173 176 L 163 176 z M 163 178 L 173 178 C 173.554 178 174 178.446 174 179 L 174 185 C 174 185.554 173.554 186 173 186 L 163 186 C 162.446 186 162 185.554 162 185 L 162 179 C 162 178.446 162.446 178 163 178 z " /><path
         id="rect8906"
         style="opacity:1;fill:#241f31;stroke-width:2"
         d="m 165,179 c -1.108,0 -2,0.892 -2,2 v 2 c 0,1.108 0.892,2 2,2 1.108,0 2,-0.892 2,-2 v -2 c 0,-1.108 -0.892,-2 -2,-2 z m 0,1 c 0.554,0 1,0.446 1,1 v 2 c 0,0.554 -0.446,1 -1,1 -0.554,0 -1,-0.446 -1,-1 v -2 c 0,-0.554 0.446,-1 1,-1 z" /><path
         id="path8968"
         style="opacity:1;fill:#241f31;stroke-width:2"
         d="m 171,179 c -1.108,0 -2,0.892 -2,2 v 2 c 0,1.108 0.892,2 2,2 1.108,0 2,-0.892 2,-2 v -2 c 0,-1.108 -0.892,-2 -2,-2 z m 0,1 c 0.554,0 1,0.446 1,1 v 2 c 0,0.554 -0.446,1 -1,1 -0.554,0 -1,-0.446 -1,-1 v -2 c 0,-0.554 0.446,-1 1,-1 z" /><rect
         style="opacity:1;fill:#241f31;stroke-width:2"
         id="rect8998"
         width="10"
         height="2"
         x="163"
         y="173"
         rx="1"
         ry="1" /><path
         id="rect15961"
         style="opacity:0.2;fill:#000000;fill-opacity:1;stroke-width:2"
         d="m 20,208 c -2.215998,0 -4,1.784 -4,4 v 4 c 0,-2.216 1.784002,-4 4,-4 h 88 c 2.216,0 4,1.784 4,4 v -4 c 0,-2.216 -1.784,-4 -4,-4 z" /><path
         id="rect15945"
         style="fill:#c0bfbc;fill-opacity:1;stroke-width:2"
         d="m 20,208 c -2.215998,0 -4,1.784 -4,4 v 2 c 0,-2.216 1.784002,-4 4,-4 h 88 c 2.216,0 4,1.784 4,4 v -2 c 0,-2.216 -1.784,-4 -4,-4 z" /><g
         id="g3685"
         style="fill:#241f31"
         transform="translate(0,-24)"><path
           style="fill:#241f31;stroke-width:1"
           d="m 33.999999,241 1,-1 h 6.000003 l 1,1 -1,1 h -6.000003 z"
           id="path2921" /><path
           style="fill:#241f31;stroke-width:1"
           d="M 43,242.00001 44.000002,243 v 6 l -0.999997,1 -1.000003,-1 10e-7,-6 z"
           id="path2923" /><path
           style="fill:#241f31;stroke-width:1"
           d="M 32.999996,242.00001 33.999997,243 v 6 l -0.999998,1 -1.000002,-1 1e-6,-6 z"
           id="path2925" /><path
           style="fill:#241f31;stroke-width:1"
           d="M 43,252.00001 44.000002,253 v 6 l -0.999997,1 -1.000003,-1 10e-7,-6 z"
           id="path2929" /><path
           style="fill:#241f31;stroke-width:1"
           d="M 32.999996,252.00001 33.999997,253 v 6 l -0.999998,1 -1.000002,-1 1e-6,-6 z"
           id="path2931" /><path
           style="fill:#241f31;stroke-width:1"
           d="m 33.999999,261 1,-1 h 6.000003 l 1,1 -1,1 h -6.000003 z"
           id="path2933" /><path
           style="fill:#241f31;stroke-width:1"
           d="m 49.999999,241 1,-1 h 6.000003 l 1,1 -1,1 h -6.000003 z"
           id="path2935" /><path
           style="fill:#241f31;stroke-width:1"
           d="M 59,242.00001 60.000002,243 v 6 l -0.999997,1 -1.000003,-1 10e-7,-6 z"
           id="path2937" /><path
           style="fill:#241f31;stroke-width:1"
           d="M 48.999996,242.00001 49.999997,243 v 6 l -0.999998,1 -1.000002,-1 10e-7,-6 z"
           id="path2939" /><path
           style="fill:#241f31;stroke-width:1"
           d="M 59,252.00001 60.000002,253 v 6 l -0.999997,1 -1.000003,-1 10e-7,-6 z"
           id="path2943" /><path
           style="fill:#241f31;stroke-width:1"
           d="M 48.999996,252.00001 49.999997,253 v 6 l -0.999998,1 -1.000002,-1 10e-7,-6 z"
           id="path2945" /><path
           style="fill:#241f31;stroke-width:1"
           d="m 49.999999,261 1,-1 h 6.000003 l 1,1 -1,1 h -6.000003 z"
           id="path2947" /><path
           style="fill:#241f31;stroke-width:1"
           d="m 69.999999,241 1,-1 h 6.000003 l 1,1 -1,1 h -6.000003 z"
           id="path2949" /><path
           style="fill:#241f31;stroke-width:1"
           d="M 79,242.00001 80.000002,243 v 6 l -0.999997,1 -1.000003,-1 1e-6,-6 z"
           id="path2951" /><path
           style="fill:#241f31;stroke-width:1"
           d="m 69.999999,261 1,-1 h 6.000003 l 1,1 -1,1 h -6.000003 z"
           id="path2961" /><path
           style="fill:#241f31;stroke-width:1"
           d="m 85.999999,241 1,-1 h 6.000003 l 1,1 -1,1 h -6.000003 z"
           id="path2963" /><path
           style="fill:#241f31;stroke-width:1"
           d="M 95,242.00001 96.000002,243 v 6 l -0.999997,1 -1.000003,-1 1e-6,-6 z"
           id="path2965" /><path
           style="fill:#241f31;stroke-width:1"
           d="M 95,252.00001 96.000002,253 v 6 l -0.999997,1 -1.000003,-1 1e-6,-6 z"
           id="path2971" /><path
           style="fill:#241f31;stroke-width:1"
           d="m 49.999999,251 1,-1 h 6.000003 l 1,1 -1,1 h -6.000003 z"
           id="path1696" /><path
           style="fill:#241f31;stroke-width:1"
           d="m 69.999999,251 1,-1 h 6.000003 l 1,1 -1,1 h -6.000003 z"
           id="path1698" /><path
           style="fill:#241f31;stroke-width:1"
           d="M 85,242.00001 86.000002,243 v 6 l -0.999997,1 -1.000003,-1 1e-6,-6 z"
           id="path2028" /><path
           style="fill:#241f31;stroke-width:1"
           d="M 85,252.00001 86.000002,253 v 6 l -0.999997,1 -1.000003,-1 1e-6,-6 z"
           id="path2030" /><path
           style="fill:#241f31;stroke-width:1"
           d="m 85.999999,261 1,-1 h 6.000003 l 1,1 -1,1 h -6.000003 z"
           id="path2034" /><path
           style="fill:#241f31;stroke-width:1"
           d="M 69,252.00001 70.000002,253 v 6 l -0.999997,1 -1.000003,-1 1e-6,-6 z"
           id="path2038" /><circle
           style="display:inline;fill:#241f31;stroke-width:2;enable-background:new"
           id="circle2295-3"
           cx="64"
           cy="246"
           r="2" /><circle
           style="display:inline;fill:#241f31;stroke-width:2;enable-background:new"
           id="circle2297-6"
           cx="64"
           cy="256"
           r="2" /></g><path
         id="rect18498"
         style="display:inline;opacity:0.2;vector-effect:none;fill:#77767b;fill-opacity:1;stroke:none;stroke-width:0.25;stroke-linecap:butt;stroke-linejoin:miter;stroke-miterlimit:4;stroke-dasharray:none;stroke-dashoffset:0;stroke-opacity:1;marker:none;marker-start:none;marker-mid:none;marker-end:none;paint-order:normal;enable-background:new"
         d="m 8,272 v 2 c 0,4.432 3.568004,8 8,8 h 96 c 4.432,0 8,-3.568 8,-8 v -2 c 0,4.432 -3.568,8 -8,8 H 16 c -4.431996,0 -8,-3.568 -8,-8 z" /><rect
         style="opacity:1;fill:#c01c28;fill-opacity:1;stroke-width:2"
         id="rect3090"
         width="64"
         height="20"
         x="32"
         y="256"
         rx="4"
         ry="4" /><rect
         style="opacity:1;fill:url(#linearGradient489);fill-opacity:1;stroke-width:2"
         id="rect487"
         width="64"
         height="20"
         x="32"
         y="254"
         rx="4"
         ry="4" /><path
         id="rect491"
         style="opacity:0.2;fill:#ffffff;fill-opacity:1;stroke-width:2"
         d="M 36 254 C 33.784002 254 32 255.784 32 258 L 32 260 C 32 257.784 33.784002 256 36 256 L 92 256 C 94.215998 256 96 257.784 96 260 L 96 258 C 96 255.784 94.215998 254 92 254 L 36 254 z " /></g><g
       inkscape:groupmode="layer"
       id="layer3"
       inkscape:label="grid"
       style="display:inline"
       sodipodi:insensitive="true"><circle
         cx="64.000031"
         cy="236"
         r="59.504131"
         id="circle2892"
         style="display:inline;opacity:0.1;vector-effect:none;fill:none;fill-opacity:1;stroke:#000000;stroke-width:0.99000001;stroke-linecap:butt;stroke-linejoin:miter;stroke-miterlimit:4;stroke-dasharray:0.99000001, 0.99000001;stroke-dashoffset:0;stroke-opacity:1;marker:none;marker-start:none;marker-mid:none;marker-end:none;paint-order:normal;enable-background:new" /><rect
         ry="7.9292889"
         rx="8.701004"
         y="180.49496"
         x="20.495007"
         height="111.01005"
         width="87.009987"
         id="rect2894"
         style="display:inline;opacity:0.1;vector-effect:none;fill:none;fill-opacity:1;stroke:#000000;stroke-width:0.99000001;stroke-linecap:butt;stroke-linejoin:miter;stroke-miterlimit:4;stroke-dasharray:0.99000001, 0.99000001;stroke-dashoffset:0;stroke-opacity:1;marker:none;marker-start:none;marker-mid:none;marker-end:none;paint-order:normal;enable-background:new" /><rect
         ry="7.9238095"
         rx="7.9238095"
         y="184.49524"
         x="12.495266"
         height="103.00952"
         width="103.00952"
         id="rect2896"
         style="display:inline;opacity:0.1;vector-effect:none;fill:none;fill-opacity:1;stroke:#000000;stroke-width:0.99000001;stroke-linecap:butt;stroke-linejoin:miter;stroke-miterlimit:4;stroke-dasharray:0.99000001, 0.99000001;stroke-dashoffset:0;stroke-opacity:1;marker:none;marker-start:none;marker-mid:none;marker-end:none;paint-order:normal;enable-background:new" /><rect
         ry="8.701005"
         rx="7.9292889"
         y="200.49496"
         x="8.4950066"
         height="87.010048"
         width="111.01004"
         id="rect2898"
         style="display:inline;opacity:0.1;vector-effect:none;fill:none;fill-opacity:1;stroke:#000000;stroke-width:0.99000001;stroke-linecap:butt;stroke-linejoin:miter;stroke-miterlimit:4;stroke-dasharray:0.99000001, 0.99000001;stroke-dashoffset:0;stroke-opacity:1;marker:none;marker-start:none;marker-mid:none;marker-end:none;paint-order:normal;enable-background:new" /><path
         inkscape:connector-curvature="0"
         id="path2900"
         d="M 2.6203015e-5,288.99999 H 128.00003"
         style="display:inline;fill:none;stroke:#62a0ea;stroke-width:2;stroke-linecap:butt;stroke-linejoin:miter;stroke-miterlimit:4;stroke-dasharray:none;stroke-opacity:1;enable-background:new" /></g></g></svg>
